Ciencia de Datos - 5 Regresión lineal múltiple
…
\[y = 1 + 2x_1 + 3x_2 + 4x_3 + \varepsilon\] Simulemos 100 observaciones de cada variable independiente (generadas uniformemente entre 0 y 1) y un error normalmente distribuido con media de 0 y desviación estándar de 1.5

library(tidyverse)
set.seed(789)
n <- 100
x1 <- runif(n)
x2 <- runif(n)
x3 <- runif(n)
error <- rnorm(n, 0, 1.5)
y <- 1 + 2*x1 + 3*x2 + 4*x3 + error
datos <- tibble(var_dep = y, var1 = x1, var2 = x2, var3 = x3)
datos

# A tibble: 100 × 4
   var_dep   var1   var2   var3
     <dbl>  <dbl>  <dbl>  <dbl>
 1    4.19 0.700  0.481  0.293 
 2    1.79 0.0935 0.314  0.0935
 3    2.88 0.0119 0.0643 0.345 
 4    7.80 0.592  0.890  0.215 
 5    6.08 0.492  0.787  0.721 
 6    5.46 0.0202 0.164  0.927 
 7    5.13 0.573  0.443  0.565 
 8    4.94 0.166  0.429  0.831 
 9    4.54 0.359  0.240  0.556 
10    4.66 0.346  0.481  0.115 
# ℹ 90 more rows
…
