Ciencia de Datos - 2 Uso de ggplot2
…
Para poder hacer análisis de cualquier tipo, primero necesitamos tener disponible un conjunto de datos o data frame (o en formato del tidyverse un tibble2). Hay varias formas de obtener datos en R

Datos sintéticos (simulados)

Bases de datos instaladas con R o con alguno de sus paquetes

Importarlo desde una fuente externa, ya sea de forma local o desde la web

Usaremos una base de datos que viene en el paquete palmerpenguins (hay que instalar y cargar la librería) que es bastante adecuada para iniciar un análisis exploratorio

library(palmerpenguins)
penguins

# A tibble: 344 × 8
   species island    bill_length_mm bill_depth_mm flipper_length_mm body_mass_g
   <fct>   <fct>              <dbl>         <dbl>             <int>       <int>
 1 Adelie  Torgersen           39.1          18.7               181        3750
 2 Adelie  Torgersen           39.5          17.4               186        3800
 3 Adelie  Torgersen           40.3          18                 195        3250
 4 Adelie  Torgersen           NA            NA                  NA          NA
 5 Adelie  Torgersen           36.7          19.3               193        3450
 6 Adelie  Torgersen           39.3          20.6               190        3650
 7 Adelie  Torgersen           38.9          17.8               181        3625
 8 Adelie  Torgersen           39.2          19.6               195        4675
 9 Adelie  Torgersen           34.1          18.1               193        3475
10 Adelie  Torgersen           42            20.2               190        4250
# ℹ 334 more rows
# ℹ 2 more variables: sex <fct>, year <int>
…
2.10.6 geom_path(), geom_line()

Estas geometrías unen puntos con líneas, geom_line() lo hace en orden ascendente de la variable x, mientras que geom_path() lo hace en el orden mismo que aparecen los datos. geom_line() es bastante útil para representar series de tiempo y geom_path() puede bocetar formas irregulares. Usamos la base de datos de serie de tiempo economics_long10 que viene con ggplot2 para mostrar el uso de geom_line(). Agregamos una forma geométrica cualquiera para el uso de geom_path()

# Revisar los primeros valores de la base de datos
economics_long

# A tibble: 2,870 × 4
   date       variable value  value01
   <date>     <chr>    <dbl>    <dbl>
 1 1967-07-01 pce       507. 0       
 2 1967-08-01 pce       510. 0.000265
 3 1967-09-01 pce       516. 0.000762
 4 1967-10-01 pce       512. 0.000471
 5 1967-11-01 pce       517. 0.000916
 6 1967-12-01 pce       525. 0.00157 
 7 1968-01-01 pce       531. 0.00207 
 8 1968-02-01 pce       534. 0.00230 
 9 1968-03-01 pce       544. 0.00322 
10 1968-04-01 pce       544  0.00319 
# ℹ 2,860 more rows
…
