10 Controlando la flexibilidad del modelo de regresión lineal – Ciencia de Datos
…
 acidez.f = fixed.acidity,
 acidez.v = volatile.acidity,
 acido.c = citric.acid,
 azucar = residual.sugar,
 cloruro = chlorides,
 sulfuro.l = free.sulfur.dioxide,
 sulfuro.t = total.sulfur.dioxide,
 ph = pH,
 sulfato = sulphates,
 alcohol,
 calidad = quality
)
datos_sub2

# A tibble: 1,143 × 12
   densidad acidez.f acidez.v acido.c azucar cloruro sulfuro.l sulfuro.t    ph
      <dbl>    <dbl>    <dbl>   <dbl>  <dbl>   <dbl>     <dbl>     <dbl> <dbl>
 1    0.998      7.4     0.7     0       1.9   0.076        11        34  3.51
 2    0.997      7.8     0.88    0       2.6   0.098        25        67  3.2 
 3    0.997      7.8     0.76    0.04    2.3   0.092        15        54  3.26
 4    0.998     11.2     0.28    0.56    1.9   0.075        17        60  3.16
 5    0.998      7.4     0.7     0       1.9   0.076        11        34  3.51
 6    0.998      7.4     0.66    0       1.8   0.075        13        40  3.51
 7    0.996      7.9     0.6     0.06    1.6   0.069        15        59  3.3 
 8    0.995      7.3     0.65    0       1.2   0.065        15        21  3.39
 9    0.997      7.8     0.58    0.02    2     0.073         9        18  3.36
10    0.996      6.7     0.58    0.08    1.8   0.097        15        65  3.28
# ℹ 1,133 more rows
# ℹ 3 more variables: sulfato <dbl>, alcohol <dbl>, calidad <int>
…
